{
  "$schema": "https://go.kicad.org/pcm/schemas/v1",
  "name": "kimotor",
  "description": "PCB motor parametric design and layout",
  "description_full": "PCB motor parametric design and layout",
  "identifier": "com.github.cooked.kimotor",
  "type": "plugin",
  "author": {
    "name": "cooked",
    "contact": {
      "web": "https://github.com/cooked/kimotor"
    }
  },
  "maintainer": {
    "name": "cooked",
    "contact": {
      "web": "https://github.com/cooked/kimotor"
    }
  },
  "license": "GPL-2.0",
  "versions": [
    {
      "version": "0.1.0",
      "status": "development",
      "kicad_version": "6.0",
      "download_url": "https://github.com/cooked/kimotor/releases/download/v0.1.0/kimotor-pcm.zip",
      "download_sha256": "46163d9c2ff9ae1ac2f6b215ad3b63811fdd2dd04b0569f6fe3cc1ca0f4115ce",
      "download_size": 28355,
      "install_size": 91233
    }
  ],
  "resources": {
    "homepage": "https://github.com/cooked/kimotor"
  }
}
